<svg width="12" height="12" viewBox="0 0 12 12" fill="none" xmlns="http://www.w3.org/2000/svg">
<path d="M10 5L6.70711 8.29289C6.31658 8.68342 5.68342 8.68342 5.29289 8.29289L2 5" stroke="white" stroke-width="2" stroke-linecap="round"/>
</svg>
