<svg width="20" height="20" viewBox="0 0 20 20" fill="none" xmlns="http://www.w3.org/2000/svg">
<rect width="20" height="20" rx="4" fill="white"/>
<path fill-rule="evenodd" clip-rule="evenodd" d="M9.29932 13.4993H10.6993V9.29932H9.29932V13.4993V13.4993ZM10 3C6.15 3 3 6.15 3 10C3 13.85 6.15 17 10 17C13.85 17 17 13.85 17 10C17 6.15 13.85 3 10 3V3ZM10.0014 15.5997C6.92137 15.5997 4.40137 13.0797 4.40137 9.99966C4.40137 6.91966 6.92137 4.39966 10.0014 4.39966C13.0814 4.39966 15.6014 6.91966 15.6014 9.99966C15.6014 13.0797 13.0814 15.5997 10.0014 15.5997V15.5997ZM9.29932 7.9H10.6993V6.5H9.29932V7.9V7.9Z" fill="#69BDF9"/>
</svg>
