<svg width="11" height="11" viewBox="0 0 11 11" fill="none" xmlns="http://www.w3.org/2000/svg">
<path fill-rule="evenodd" clip-rule="evenodd" d="M5.5 11C2.46243 11 0 8.53757 0 5.5C0 2.46243 2.46243 0 5.5 0C8.53757 0 11 2.46243 11 5.5C11 8.53757 8.53757 11 5.5 11ZM5.46133 1.41937C5.33487 1.41937 5.25548 1.43914 5.18609 1.47625C5.1167 1.51336 5.06224 1.56781 5.02513 1.63721C4.98802 1.7066 4.96826 1.78598 4.96826 1.91245V4.78581C4.96826 4.84908 4.96167 4.87202 4.9493 4.89515C4.93693 4.91828 4.91877 4.93643 4.89564 4.9488C4.87251 4.96117 4.84957 4.96776 4.7863 4.96776H2.97745C2.85099 4.96776 2.7716 4.98752 2.70221 5.02463C2.63282 5.06174 2.57836 5.1162 2.54125 5.18559C2.50414 5.25498 2.48438 5.33437 2.48438 5.46083V5.5392C2.48438 5.66567 2.50414 5.74505 2.54125 5.81444C2.57836 5.88383 2.63282 5.93829 2.70221 5.9754C2.7716 6.01251 2.85099 6.03228 2.97745 6.03228H5.30496C5.55804 6.03228 5.64981 6.00593 5.74233 5.95644C5.83485 5.90696 5.90746 5.83435 5.95694 5.74183C6.00643 5.64931 6.03278 5.55754 6.03278 5.30446V1.91245C6.03278 1.78598 6.01301 1.7066 5.9759 1.63721C5.93879 1.56781 5.88433 1.51336 5.81494 1.47625C5.74555 1.43914 5.66616 1.41937 5.5397 1.41937H5.46133Z" fill="white"/>
</svg>
