<svg width="80" height="80" viewBox="0 0 80 80" fill="none" xmlns="http://www.w3.org/2000/svg">
<circle cx="40" cy="40" r="40" fill="#69BDF9"/>
<path d="M40.0017 16C26.7484 16 16 26.7476 16 40C16 53.2524 26.7484 64 40.0017 64C53.2516 64 64 53.2524 64 40C64 26.7476 53.2511 16 40.0017 16ZM43.5427 20.7882C43.9346 20.1579 44.7702 19.6451 46.9485 20.3969C49.1282 21.1556 50.6663 22.0842 51.8865 22.9291C53.0988 23.774 55.8468 26.1094 56.6329 27.5651C57.4338 29.0168 57.6072 29.7202 57.2149 30.1502C56.439 30.9887 49.4878 33.1331 48.6668 33.2266C47.8429 33.3202 46.4641 33.5944 45.2444 32.7481C44.6096 32.3009 43.8028 31.4104 43.6607 29.3665C43.5153 27.3192 43.1508 21.4157 43.5427 20.7882ZM39.6383 37.504C41.1685 37.504 42.4087 38.7442 42.4087 40.2743C42.4087 41.8044 41.1685 43.0446 39.6383 43.0446C38.108 43.0446 36.8678 41.8044 36.8678 40.2743C36.8678 38.7442 38.108 37.504 39.6383 37.504ZM23.4356 27.4167C24.8214 25.5731 26.1728 24.3917 27.3538 23.4909C28.525 22.5897 31.5879 20.6918 33.2136 20.3798C34.8418 20.0682 35.5629 20.1094 35.8494 20.6188C36.4108 21.6091 36.3353 28.8826 36.1722 29.6962C36.0096 30.5073 35.8533 31.9027 34.6753 32.8078C34.0586 33.2824 32.9638 33.7742 30.9678 33.2893C28.979 32.7976 23.2436 31.3419 22.7621 30.7811C22.2855 30.2158 22.0494 29.2627 23.4356 27.4167ZM26.1522 53.8269C25.4733 54.1179 24.4961 54.0704 23.1334 52.2062C21.7653 50.3494 21.0242 48.7061 20.5113 47.3205C19.9916 45.9349 19.0561 42.4568 19.2295 40.8111C19.4097 39.1615 19.6585 38.4826 20.2341 38.3543C21.3431 38.1016 28.2796 40.2875 29.0104 40.6789C29.7378 41.0771 31.031 41.6315 31.5507 43.0176C31.821 43.7484 31.9798 44.9371 30.934 46.7038C29.8872 48.4705 26.8311 53.5291 26.1522 53.8269ZM45.4966 60.0953C43.2713 60.7149 41.481 60.8325 40.0012 60.8325C38.518 60.8325 34.932 60.4789 33.4488 59.7451C31.9724 59.0002 31.4223 58.529 31.5017 57.9505C31.6584 56.8176 36.1379 51.087 36.7659 50.5438C37.3929 49.9997 38.3622 48.9848 39.8459 48.9848C40.6258 48.9848 41.7925 49.262 43.0788 50.8558C44.3646 52.4565 48.031 57.0924 48.0717 57.834C48.1104 58.5706 47.7214 59.4718 45.4966 60.0953ZM59.7796 46.5094C59.3118 47.9239 57.86 51.2158 56.6922 52.3933C55.5308 53.5713 54.9112 53.9464 54.3876 53.6893C53.3555 53.1868 49.3119 47.1402 48.9896 46.3752C48.6673 45.6165 48.009 44.3724 48.4709 42.9657C48.7134 42.2202 49.3433 41.1946 51.26 40.4741C53.1762 39.7531 58.7299 37.7161 59.4436 37.914C60.1651 38.1074 60.8891 38.7564 60.7916 41.0629C60.6838 43.3634 60.2405 45.1056 59.7796 46.5094Z" fill="white"/>
</svg>
