<svg width="80" height="80" viewBox="0 0 80 80" fill="none" xmlns="http://www.w3.org/2000/svg">
<circle cx="40" cy="40" r="40" fill="#69BDF9"/>
<path d="M39.9996 39.9993C39.9996 45.5227 35.5222 49.9986 29.9998 49.9986C24.4789 49.9986 20 45.5227 20 39.9993C20 34.4769 24.4789 29.9995 29.9998 29.9995C35.5222 29.9995 39.9996 34.4769 39.9996 39.9993Z" fill="white"/>
<path d="M41.9999 59.9998C44.7613 59.9998 46.9998 57.7613 46.9998 54.9999C46.9998 52.2385 44.7613 50 41.9999 50C39.2385 50 37 52.2385 37 54.9999C37 57.7613 39.2385 59.9998 41.9999 59.9998Z" fill="white"/>
<path d="M60 52.8002C58.2312 52.8002 56.7999 54.2345 56.7999 56H55.2001C55.2001 54.2345 53.7659 52.8002 52 52.8002V51.1998C53.7692 51.1998 55.2001 49.7655 55.2001 48H56.7999C56.7999 49.7655 58.2341 51.1998 60 51.1998V52.8002Z" fill="white"/>
<path d="M31.5 56C32.3284 56 33 55.3284 33 54.5C33 53.6716 32.3284 53 31.5 53C30.6716 53 30 53.6716 30 54.5C30 55.3284 30.6716 56 31.5 56Z" fill="white"/>
<path d="M21.5 29C22.3284 29 23 28.3284 23 27.5C23 26.6716 22.3284 26 21.5 26C20.6716 26 20 26.6716 20 27.5C20 28.3284 20.6716 29 21.5 29Z" fill="white"/>
<path d="M30.4999 25.9999C31.8806 25.9999 32.9999 24.8806 32.9999 23.5C32.9999 22.1193 31.8806 21 30.4999 21C29.1193 21 28 22.1193 28 23.5C28 24.8806 29.1193 25.9999 30.4999 25.9999Z" fill="white"/>
<path d="M26.6671 57.4982C26.6671 58.8817 25.5477 59.9982 24.1672 59.9982C22.7872 59.9982 21.6672 58.8817 21.6672 57.4982C21.6672 56.1178 22.7872 54.9983 24.1672 54.9983C25.5477 54.9983 26.6671 56.1178 26.6671 57.4982Z" fill="white"/>
<path d="M46.8363 20C41.6236 20 37.1325 23.0007 35 27.3411C39.9847 29.1947 43.5458 33.9382 43.5458 39.5004C43.5458 41.5304 43.0605 43.4459 42.2154 45.159C43.6549 45.6953 45.2073 46 46.8363 46C54.106 46 60 40.18 60 33.0002C60 25.8205 54.106 20 46.8363 20ZM53.4184 33.0002C53.4184 29.4092 50.4744 26.5001 46.8363 26.5001V23.2498C52.2905 23.2498 56.709 27.6141 56.709 33.0002H53.4184Z" fill="white"/>
</svg>
