<svg width="80" height="80" viewBox="0 0 80 80" fill="none" xmlns="http://www.w3.org/2000/svg">
<circle cx="40" cy="40" r="40" fill="#69BDF9"/>
<path d="M30.6701 22.7247L30 22L29.3287 22.7247C28.7029 23.4006 14 39.3856 14 48.6758C14 58.2285 21.1775 66 30 66C38.8225 66 46 58.2285 46 48.6758C46 39.3856 31.2976 23.4006 30.6701 22.7247Z" fill="white"/>
<path d="M54.4688 15C50.2986 15 46.7057 17.3082 44.9998 20.647C48.9875 22.0728 51.8364 25.7217 51.8364 30.0003C51.8364 31.5618 51.4482 33.0353 50.7721 34.3531C51.9236 34.7656 53.1656 35 54.4688 35C60.2846 35 64.9998 30.5231 64.9998 25.0002C64.9998 19.4773 60.2846 15 54.4688 15ZM59.7345 25.0002C59.7345 22.2378 57.3793 20.0001 54.4688 20.0001V17.4999C58.8321 17.4999 62.3669 20.857 62.3669 25.0002H59.7345Z" fill="white"/>
<path d="M52 30.0002C52 35.5239 47.5225 40 42 40C36.479 40 32 35.5239 32 30.0002C32 24.4776 36.479 20 42 20C47.5225 20 52 24.4776 52 30.0002Z" fill="#69BDF9"/>
<path d="M49.9995 29.9999C49.9995 34.4186 46.4176 37.9994 41.9996 37.9994C37.5829 37.9994 33.9998 34.4186 33.9998 29.9999C33.9998 25.5819 37.5829 22 41.9996 22C46.4176 22 49.9995 25.5819 49.9995 29.9999Z" fill="white"/>
<path d="M51.9999 45.9999C54.209 45.9999 55.9999 44.209 55.9999 41.9999C55.9999 39.7908 54.209 38 51.9999 38C49.7908 38 48 39.7908 48 41.9999C48 44.209 49.7908 45.9999 51.9999 45.9999Z" fill="white"/>
<path d="M66 39.6001C64.6734 39.6001 63.5999 40.6759 63.5999 42H62.4001C62.4001 40.6759 61.3244 39.6001 60 39.6001V38.3999C61.3269 38.3999 62.4001 37.3241 62.4001 36H63.5999C63.5999 37.3241 64.6756 38.3999 66 38.3999V39.6001Z" fill="white"/>
<path d="M43.5 45C45.433 45 47 43.433 47 41.5C47 39.567 45.433 38 43.5 38C41.567 38 40 39.567 40 41.5C40 43.433 41.567 45 43.5 45Z" fill="#69BDF9"/>
<path d="M43.5 43C44.3284 43 45 42.3284 45 41.5C45 40.6716 44.3284 40 43.5 40C42.6716 40 42 40.6716 42 41.5C42 42.3284 42.6716 43 43.5 43Z" fill="white"/>
<path d="M34.5 21C35.3284 21 36 20.3284 36 19.5C36 18.6716 35.3284 18 34.5 18C33.6716 18 33 18.6716 33 19.5C33 20.3284 33.6716 21 34.5 21Z" fill="white"/>
<path d="M42 18.9999C43.1045 18.9999 43.9999 18.1045 43.9999 17C43.9999 15.8954 43.1045 15 42 15C40.8954 15 40 15.8954 40 17C40 18.1045 40.8954 18.9999 42 18.9999Z" fill="white"/>
<path d="M39.3334 43.9985C39.3334 45.1053 38.4378 45.9985 37.3335 45.9985C36.2295 45.9985 35.3335 45.1053 35.3335 43.9985C35.3335 42.8941 36.2295 41.9985 37.3335 41.9985C38.4378 41.9985 39.3334 42.8941 39.3334 43.9985Z" fill="white"/>
</svg>
