<svg width="80" height="80" viewBox="0 0 80 80" fill="none" xmlns="http://www.w3.org/2000/svg">
<circle cx="40" cy="40" r="40" fill="#69BDF9"/>
<path d="M40.6701 18.7247L40 18L39.3287 18.7247C38.7029 19.4006 24 35.3856 24 44.6758C24 54.2285 31.1775 62 40 62C48.8225 62 56 54.2285 56 44.6758C56 35.3856 41.2976 19.4006 40.6701 18.7247Z" fill="white"/>
</svg>
