<svg width="40" height="40" viewBox="0 0 40 40" fill="none" xmlns="http://www.w3.org/2000/svg">
<rect width="40" height="40" rx="20" fill="white"/>
<rect width="40" height="40" rx="20" fill="white"/>
<path d="M19 13V28" stroke="#013A51" stroke-width="1.4"/>
<path d="M24 22.8L16 22.8L16 24.2L24 24.2L24 22.8Z" fill="#013A51"/>
<path d="M22 26.8L16 26.8L16 28.2L22 28.2L22 26.8Z" fill="#013A51"/>
<path d="M16 14.2H23V12.8H16V14.2ZM23 19.8H16V21.2H23V19.8ZM25.8 17C25.8 18.5464 24.5464 19.8 23 19.8V21.2C25.3196 21.2 27.2 19.3196 27.2 17H25.8ZM23 14.2C24.5464 14.2 25.8 15.4536 25.8 17H27.2C27.2 14.6804 25.3196 12.8 23 12.8V14.2Z" fill="#013A51"/>
<path d="M20 4C11.1635 4 4 11.1635 4 20C4 28.8365 11.1635 36 20 36C28.8365 36 36 28.8365 36 20C35.99 11.1676 28.8324 4.01 20 4ZM20 34.9333C11.7525 34.9333 5.06667 28.2475 5.06667 20C5.06667 11.7525 11.7525 5.06667 20 5.06667C28.2475 5.06667 34.9333 11.7525 34.9333 20C34.9239 28.2435 28.2435 34.9239 20 34.9333Z" fill="#013A51"/>
</svg>
