<svg width="11" height="8" viewBox="0 0 11 8" fill="none" xmlns="http://www.w3.org/2000/svg">
<path fill-rule="evenodd" clip-rule="evenodd" d="M9.96875 0H1.03125C0.461699 0 0 0.447708 0 1V7C0 7.55229 0.461699 8 1.03125 8H9.96875C10.5383 8 11 7.55229 11 7V1C11 0.447708 10.5383 0 9.96875 0ZM9.96875 1V1.8501C9.48703 2.2305 8.71905 2.822 7.07723 4.06865C7.01642 4.11503 6.94558 4.17235 6.86743 4.23558C6.48065 4.54855 5.91488 5.00635 5.5 4.99992C5.08518 5.00642 4.51922 4.54846 4.13246 4.2355C4.05435 4.1723 3.98354 4.115 3.92277 4.06865C2.28121 2.82219 1.51304 2.23056 1.03125 1.8501V1H9.96875ZM1.03125 3.13324V6.99995H9.96875V3.13326C9.47644 3.51351 8.77811 4.04722 7.71403 4.8552C7.64451 4.90827 7.56823 4.96979 7.48587 5.03623C6.99442 5.43264 6.28602 6.00405 5.5 5.99993C4.71058 6.00405 3.99437 5.42493 3.50993 5.03322C3.4284 4.96729 3.35343 4.90667 3.28578 4.85503C2.22168 4.04703 1.52354 3.51347 1.03125 3.13324Z" fill="#013A51"/>
</svg>
