<svg width="12" height="10" viewBox="0 0 12 10" fill="none" xmlns="http://www.w3.org/2000/svg">
<path d="M1.7069 4.16929L0 5.96357L4.54617 10L12 1.58438L10.0834 0L4.32876 6.49718L1.7069 4.16929Z" fill="#0DFF8B"/>
</svg>
