<svg width="11" height="11" viewBox="0 0 11 11" fill="none" xmlns="http://www.w3.org/2000/svg">
<path fill-rule="evenodd" clip-rule="evenodd" d="M1.52674 0.0361558C1.52674 0.0361558 0 0.529447 0 1.8258C0 3.12216 1.04694 5.36599 3.3398 7.6594C5.63265 9.9528 7.87594 11 9.17198 11C10.468 11 10.9696 9.37374 10.9696 9.37374C11.0505 9.17042 10.9641 8.91031 10.7787 8.79399L8.51239 7.37242C8.32607 7.25554 8.02174 7.25372 7.83418 7.36742L6.95581 7.89989C6.72067 8.04244 6.35128 8.02324 6.13498 7.85542C6.13498 7.85542 5.45168 7.36615 4.53614 6.46276C3.6206 5.55937 3.14785 4.90982 3.14785 4.90982C2.97856 4.69355 2.95666 4.32788 3.09936 4.09237L3.6317 3.21378C3.74579 3.02549 3.74053 2.72245 3.62092 2.53839L2.11156 0.215735C1.99152 0.0310155 1.72777 -0.0538814 1.52674 0.0361558Z" fill="#013A51"/>
</svg>
