<svg width="37" height="33" viewBox="0 0 37 33" fill="none" xmlns="http://www.w3.org/2000/svg">
<path d="M37 33V17.0726H30.0169C30.2254 11.9716 31.7887 8.43217 37 6.87066V0C26.5775 1.76971 22.0958 9.99369 22.0958 19.9874V33H37ZM14.9042 33V17.0726H7.92113C8.12958 11.9716 9.69296 8.43217 14.9042 6.87066V0C4.48169 1.76971 0 9.99369 0 19.9874V33H14.9042Z" fill="#69BDF9"/>
</svg>
