<svg width="70" height="70" viewBox="0 0 70 70" fill="none" xmlns="http://www.w3.org/2000/svg">
<rect width="70" height="70" rx="8" fill="#013A51"/>
<path fill-rule="evenodd" clip-rule="evenodd" d="M54.9766 24.5631C54.9777 24.5707 54.9787 24.5784 54.9787 24.5872C54.988 25.1997 54.9897 25.8135 54.9914 26.4271C54.9928 26.9385 54.9942 27.4498 55 27.9603V45.0318C55 46.1591 54.7362 47.2776 54.1491 48.2382C53.1153 49.9313 51.3029 50.9709 49.3629 50.984C49.3161 50.984 49.2736 50.9796 49.231 50.9752C49.2069 50.9752 49.1828 50.9708 49.1602 50.9667C49.1509 50.965 49.1418 50.9634 49.1332 50.9621C49.0608 50.9752 48.9928 50.9796 48.9204 50.9796H23.0664C22.792 50.9796 22.5147 50.9847 22.236 50.9897C21.3522 51.0058 20.4541 51.0221 19.5905 50.8787C17.4505 50.5191 15.6169 48.6768 15.1574 46.5056C15.0213 45.8652 15 45.2379 15 44.5932V20.3237C15 19.6131 15.5956 19.0078 16.2848 19.0078H16.3401C17.12 18.9961 17.9017 19 18.684 19.0039C19.0754 19.0058 19.467 19.0078 19.8585 19.0078H45.2744C45.9636 19.0078 46.555 19.6131 46.555 20.3237C46.555 20.3325 46.556 20.3412 46.5571 20.35C46.5582 20.3588 46.5592 20.3676 46.5592 20.3763C46.572 21.235 46.5704 22.0962 46.5688 22.9562C46.5683 23.2427 46.5678 23.5291 46.5678 23.8152V43.8694C46.5678 44.0653 46.5639 44.2634 46.56 44.4624C46.5503 44.954 46.5406 45.4514 46.589 45.9354C46.5848 45.9069 46.5784 45.8783 46.572 45.8498C46.5656 45.8213 46.5592 45.7928 46.555 45.7643C46.5569 45.7779 46.5589 45.7914 46.5608 45.8049C46.5681 45.8551 46.5752 45.9046 46.582 45.9543C46.5814 45.948 46.581 45.9417 46.5805 45.9354C46.6401 46.3126 46.7294 46.681 46.8613 47.0363C46.9209 47.1679 46.9847 47.2951 47.057 47.4179C47.0995 47.4925 47.1463 47.5626 47.1931 47.6328L47.1931 47.6329C47.1719 47.611 47.1549 47.589 47.1379 47.5671L47.1378 47.5671C47.0017 47.4048 47.3463 47.861 47.2272 47.6855C47.2208 47.6767 47.2155 47.668 47.2102 47.6592C47.2048 47.6504 47.1995 47.6416 47.1931 47.6329C47.1995 47.6416 47.207 47.6504 47.2144 47.6592C47.2219 47.668 47.2293 47.6767 47.2357 47.6855C47.308 47.7645 47.3846 47.8434 47.4612 47.918C47.4782 47.9355 47.4994 47.953 47.5207 47.9706L47.5207 47.9706C47.5118 47.9675 47.5049 47.9623 47.4972 47.9564C47.4939 47.9539 47.4905 47.9513 47.4867 47.9487C47.4761 47.9399 47.4654 47.9322 47.4548 47.9246C47.4442 47.9169 47.4335 47.9092 47.4229 47.9004C47.3123 47.8171 47.7037 48.1373 47.576 48.0189C47.559 48.0057 47.5378 47.9882 47.5207 47.9706C47.6441 48.0583 47.776 48.1329 47.9121 48.2031C48.0711 48.2616 48.2333 48.2993 48.399 48.3378C48.4196 48.3426 48.4403 48.3474 48.461 48.3522H48.9162C49.0013 48.3522 49.0821 48.361 49.1629 48.3742C49.2268 48.3654 49.2906 48.361 49.3544 48.361C49.4948 48.361 49.6352 48.3522 49.7713 48.3391L49.6054 48.3654C49.6628 48.3566 49.7192 48.3489 49.7756 48.3413C49.832 48.3336 49.8883 48.3259 49.9458 48.3171C49.9391 48.3181 49.9325 48.3191 49.9259 48.3201C49.8738 48.3278 49.8242 48.3352 49.7713 48.3391C50.0351 48.2908 50.2946 48.2162 50.5499 48.1198C50.5035 48.1458 50.453 48.1676 50.4024 48.1893L50.7073 48.0584C50.6818 48.0693 50.6562 48.0792 50.6307 48.089C50.6052 48.0989 50.5797 48.1088 50.5541 48.1198C50.7583 48.0233 50.954 47.9092 51.1412 47.7776C51.1583 47.7667 51.1742 47.7546 51.1902 47.7425C51.2061 47.7305 51.2221 47.7184 51.2391 47.7074C50.9966 47.9136 51.4518 47.5539 51.2774 47.6767C51.2646 47.6899 51.2519 47.6987 51.2391 47.7074C51.3369 47.6197 51.4305 47.532 51.5241 47.4355C51.6135 47.3434 51.7028 47.2425 51.7837 47.1416L51.7581 47.1811C51.639 47.3609 51.9879 46.896 51.7879 47.1416C51.7986 47.1241 51.8103 47.1076 51.822 47.0912C51.8337 47.0747 51.8454 47.0583 51.856 47.0407C51.9836 46.8477 52.09 46.6459 52.1878 46.4354C52.1708 46.488 52.1495 46.5407 52.1283 46.5933L52.2559 46.2775C52.2453 46.3038 52.2336 46.329 52.2219 46.3543C52.2102 46.3795 52.1985 46.4047 52.1878 46.431C52.2814 46.1722 52.3538 45.9047 52.4006 45.6283C52.3974 45.6741 52.3942 45.7174 52.3893 45.7619C52.3922 45.7401 52.3953 45.7182 52.3984 45.6963C52.4037 45.659 52.4091 45.6217 52.4133 45.5845C52.4112 45.591 52.4101 45.5987 52.4091 45.6064C52.408 45.6141 52.4069 45.6217 52.4048 45.6283L52.4048 45.6282C52.4176 45.4835 52.4303 45.3388 52.4303 45.1941C52.4346 44.4265 52.4388 43.6589 52.4388 42.8913V24.5389C52.4388 23.802 53.0132 23.2537 53.7067 23.223C54.3959 23.1923 54.9745 23.8503 54.9745 24.5389C54.9745 24.5477 54.9755 24.5554 54.9766 24.5631ZM21.9517 44.1414H33.2685C33.9364 44.1414 34.5746 43.5361 34.5448 42.8255C34.515 42.1105 33.9832 41.5096 33.2685 41.5096H21.9517C21.2838 41.5096 20.6456 42.1149 20.6754 42.8255C20.7052 43.5361 21.237 44.1414 21.9517 44.1414ZM21.9517 36.0705H39.5224C40.1904 36.0705 40.8328 35.4652 40.803 34.759C40.7732 34.0485 40.2414 33.4431 39.5267 33.4431H24.1172C23.8805 33.4431 23.6434 33.4417 23.4061 33.4402C22.931 33.4373 22.4553 33.4344 21.9815 33.4431H21.9517C21.2838 33.4431 20.6456 34.0485 20.6754 34.759C20.7052 35.4696 21.237 36.0705 21.9517 36.0705ZM21.9517 28.0875H39.5224C40.1904 28.0875 40.8328 27.4822 40.803 26.776C40.7732 26.0654 40.2414 25.4601 39.5267 25.4601H24.1172C23.8805 25.4601 23.6434 25.4586 23.4061 25.4571C22.931 25.4542 22.4553 25.4513 21.9815 25.4601H21.9517C21.2838 25.4601 20.6456 26.0654 20.6754 26.776C20.7052 27.4865 21.237 28.0875 21.9517 28.0875ZM48.2566 26.6838V24.5959C48.2566 23.859 48.8395 23.3151 49.533 23.28C50.2222 23.2493 50.8093 23.9073 50.8093 24.5959V24.631C50.8206 25.1954 50.8168 25.7598 50.8131 26.3241C50.8112 26.6063 50.8093 26.8885 50.8093 27.1707V32.4036V38.4348V43.422V45.5099C50.8093 46.2468 50.2264 46.7951 49.533 46.8258C48.8437 46.8565 48.2566 46.1985 48.2566 45.5099V45.4748C48.2453 44.9104 48.2491 44.346 48.2529 43.7817C48.2547 43.4995 48.2566 43.2173 48.2566 42.9351V37.7022V31.6711V26.6838Z" fill="white"/>
</svg>
