<svg width="15" height="15" viewBox="0 0 15 15" fill="none" xmlns="http://www.w3.org/2000/svg">
<path fill-rule="evenodd" clip-rule="evenodd" d="M10.0317 8.61752L13.7685 12.3543C14.0809 12.6667 14.0809 13.1733 13.7685 13.4857L13.4857 13.7685C13.1733 14.0809 12.6667 14.0809 12.3543 13.7685L8.61752 10.0317C7.73148 10.6424 6.6575 11 5.5 11C2.46243 11 0 8.53757 0 5.5C0 2.46243 2.46243 0 5.5 0C8.53757 0 11 2.46243 11 5.5C11 6.6575 10.6424 7.73148 10.0317 8.61752ZM5.5 1.5C3.29086 1.5 1.5 3.29086 1.5 5.5C1.5 7.70914 3.29086 9.5 5.5 9.5C7.70914 9.5 9.5 7.70914 9.5 5.5C9.5 3.29086 7.70914 1.5 5.5 1.5Z" fill="white"/>
</svg>
