<svg width="12" height="12" viewBox="0 0 12 12" fill="none" xmlns="http://www.w3.org/2000/svg">
<path d="M6 12C7.5913 12 9.11742 11.3679 10.2426 10.2426C11.3679 9.11742 12 7.5913 12 6C12 4.4087 11.3679 2.88258 10.2426 1.75736C9.11742 0.632141 7.5913 0 6 0C4.4087 0 2.88258 0.632141 1.75736 1.75736C0.632141 2.88258 0 4.4087 0 6C0 7.5913 0.632141 9.11742 1.75736 10.2426C2.88258 11.3679 4.4087 12 6 12Z" fill="#CACDD7"/>
<path fill-rule="evenodd" clip-rule="evenodd" d="M4.30518 4.95699C4.32518 3.98399 5.00418 3.31299 6.20318 3.31299C7.32018 3.31299 8.05918 3.93299 8.05918 4.83599C8.05918 5.42199 7.77318 5.83199 7.22318 6.15599C6.70318 6.45699 6.55918 6.64799 6.55918 7.02299V7.22999H5.52318L5.51618 7.01599C5.46518 6.39099 5.68018 6.03899 6.21918 5.72299C6.72318 5.42199 6.87518 5.23399 6.87518 4.87099C6.87518 4.50799 6.57818 4.24999 6.13318 4.24999C5.68318 4.24999 5.38718 4.52699 5.36318 4.95699H4.30518ZM6.08218 9.11699C5.64518 9.11699 5.37218 8.86299 5.37218 8.45299C5.37218 8.03899 5.64518 7.78499 6.08218 7.78499C6.52018 7.78499 6.78918 8.03899 6.78918 8.45299C6.78918 8.86299 6.51918 9.11699 6.08218 9.11699Z" fill="white"/>
</svg>
